@startuml

title URL Shortener Schemas Diagram

entity ApiError {
    errorCode: String
    message: String
    date: Date
}

entity Url {
    url: String
    hash: String
    expirationDate: Date
}



@enduml